{"photos":{"page":1, "pages":7, "perpage":80, "total":500, "photo":[{"id":"12154780664", "owner":"30066641@N03", "secret":"c545cf7b3b", "server":"7349", "farm":8, "title":"Helpless", "ispublic":1, "isfriend":0, "isfamily":0}, {"id":"12156658555", "owner":"33673694@N00", "secret":"e6d6cec4fd", "server":"3823", "farm":4, "title":"blue fog", "ispublic":1, "isfriend":0, "isfamily":0}, {"id":"12154033323", "owner":"21247378@N04", "secret":"1f867beb61", "server":"3801", "farm":4, "title":"Pet Prints in the Snow", "ispublic":1, "isfriend":0, "isfamily":0}, {"id":"12147605975", "owner":"7121172@N02", "secret":"2cc13407ae", "server":"5493", "farm":6, "title":"Twin Ships, Schuster Drive, Tacoma, Washington", "ispublic":1, "isfriend":0, "isfamily":0}, {"id":"12161880663", "owner":"44476574@N04", "secret":"b7d74247db", "server":"7292", "farm":8, "title":"Burrowing Owl (Athene cunicularia)", "ispublic":1, "isfriend":0, "isfamily":0}, {"id":"12167782853", "owner":"25341432@N08", "secret":"74c72fbdc6", "server":"3824", "farm":4, "title":"thunderstorm", "ispublic":1, "isfriend":0, "isfamily":0}, {"id":"12167061526", "owner":"9077088@N02", "secret":"ae1ee8e911", "server":"7362", "farm":8, "title":"It's Springtime In The Fields", "ispublic":1, "isfriend":0, "isfamily":0}, {"id":"12163940425", "owner":"52498474@N05", "secret":"9d79b7edea", "server":"7393", "farm":8, "title":"Joy", "ispublic":1, "isfriend":0, "isfamily":0}, {"id":"12163306595", "owner":"51523194@N00", "secret":"250c47a122", "server":"3775", "farm":4, "title":"4\/52  Homeplace...(Explored 1\/27\/2014)", "ispublic":1, "isfriend":0, "isfamily":0}, {"id":"12163250605", "owner":"40116219@N08", "secret":"c3eb2e650c", "server":"5493", "farm":6, "title":"Clothing", "ispublic":1, "isfriend":0, "isfamily":0}, {"id":"12162491014", "owner":"99352947@N00", "secret":"fddffda2b9", "server":"3819", "farm":4, "title":"cypress tree", "ispublic":1, "isfriend":0, "isfamily":0}, {"id":"12162434283", "owner":"10590033@N02", "secret":"99530d11b7", "server":"7380", "farm":8, "title":"Rocks and silks - Explore 01\/27\/14", "ispublic":1, "isfriend":0, "isfamily":0}, {"id":"12162208913", "owner":"59611104@N06", "secret":"5cea8f93bd", "server":"2816", "farm":3, "title":"We're Outta Here", "ispublic":1, "isfriend":0, "isfamily":0}, {"id":"12161920135", "owner":"64185004@N08", "secret":"64bddbef2e", "server":"3748", "farm":4, "title":"Port, Cadaques.", "ispublic":1, "isfriend":0, "isfamily":0}, {"id":"12160693663", "owner":"38474451@N04", "secret":"7766710773", "server":"5531", "farm":6, "title":"Teddy Love", "ispublic":1, "isfriend":0, "isfamily":0}, {"id":"12159883245", "owner":"66378844@N06", "secret":"5ef8d48d82", "server":"5484", "farm":6, "title":"Intrecci [Explore_27.1.2014]", "ispublic":1, "isfriend":0, "isfamily":0}, {"id":"12159220983", "owner":"87690240@N03", "secret":"db4c25fa39", "server":"5536", "farm":6, "title":"Grand Canal, Dublin, Ireland", "ispublic":1, "isfriend":0, "isfamily":0}, {"id":"12158735034", "owner":"36506481@N00", "secret":"f254b611de", "server":"5510", "farm":6, "title":"Jericho tennis-players on a foggy morning", "ispublic":1, "isfriend":0, "isfamily":0}, {"id":"12158230275", "owner":"37110466@N06", "secret":"e421cee551", "server":"3716", "farm":4, "title":"vorrei un futuro con tanta luce e.....un p\u00f2 di caff\u00e8", "ispublic":1, "isfriend":0, "isfamily":0}, {"id":"12157924043", "owner":"82967224@N06", "secret":"bc1da5652e", "server":"3721", "farm":4, "title":"wow, a film team...searching us??? Explore 2014-01-26", "ispublic":1, "isfriend":0, "isfamily":0}, {"id":"12157797255", "owner":"30777860@N00", "secret":"508eee25a8", "server":"5539", "farm":6, "title":"Swimming", "ispublic":1, "isfriend":0, "isfamily":0}, {"id":"12157576273", "owner":"23456957@N08", "secret":"28075a8c61", "server":"5501", "farm":6, "title":"PLACE DES QUINCONCES (BORDEAUX)", "ispublic":1, "isfriend":0, "isfamily":0}, {"id":"12156616015", "owner":"48839047@N07", "secret":"56a7881c78", "server":"3689", "farm":4, "title":"~Waiting for the Storm", "ispublic":1, "isfriend":0, "isfamily":0}, {"id":"12156557734", "owner":"60456107@N04", "secret":"a21d6a31b4", "server":"5534", "farm":6, "title":"Haute fagnes, Hoge Venen, Belgium", "ispublic":1, "isfriend":0, "isfamily":0}, {"id":"12156483474", "owner":"80059859@N04", "secret":"12c7c0a3ac", "server":"3715", "farm":4, "title":"Black Swans in flight", "ispublic":1, "isfriend":0, "isfamily":0}, {"id":"12156160673", "owner":"58153317@N08", "secret":"0a52d454fa", "server":"3675", "farm":4, "title":"Wavy Tracks", "ispublic":1, "isfriend":0, "isfamily":0}, {"id":"12156037165", "owner":"36406753@N08", "secret":"34992daab1", "server":"5530", "farm":6, "title":"Yester & Today.", "ispublic":1, "isfriend":0, "isfamily":0}, {"id":"12155769775", "owner":"53372394@N05", "secret":"b03fe7b330", "server":"5510", "farm":6, "title":"The Gulf of Mexico", "ispublic":1, "isfriend":0, "isfamily":0}, {"id":"12155067446", "owner":"65385752@N03", "secret":"4e341cef66", "server":"7395", "farm":8, "title":"Snowpark Feldberg #11 [explored]", "ispublic":1, "isfriend":0, "isfamily":0}, {"id":"12154626454", "owner":"52885421@N03", "secret":"55e4d32674", "server":"2870", "farm":3, "title":"L O V E [i]tself.", "ispublic":1, "isfriend":0, "isfamily":0}, {"id":"12154598665", "owner":"46609250@N03", "secret":"23c4180535", "server":"5495", "farm":6, "title":"the hours: 7:00am", "ispublic":1, "isfriend":0, "isfamily":0}, {"id":"12154536684", "owner":"68316027@N04", "secret":"90ded86662", "server":"3689", "farm":4, "title":"Scientific Californians make an exceptional discovery on the Moroccan Atlas \/ \"seen on Explore\"", "ispublic":1, "isfriend":0, "isfamily":0}, {"id":"12154514235", "owner":"56819064@N05", "secret":"d2546bdc0c", "server":"2887", "farm":3, "title":"Sunrise at Tonglu : West Bengal, India.", "ispublic":1, "isfriend":0, "isfamily":0}, {"id":"12153996783", "owner":"94588868@N00", "secret":"0f6a25b818", "server":"3726", "farm":4, "title":"Winter Bridge", "ispublic":1, "isfriend":0, "isfamily":0}, {"id":"12153761926", "owner":"33963540@N02", "secret":"32cd74d970", "server":"3672", "farm":4, "title":"Frozen Friday", "ispublic":1, "isfriend":0, "isfamily":0}, {"id":"12153523586", "owner":"69690883@N07", "secret":"4dde9b0810", "server":"7290", "farm":8, "title":"sunset over Arthur's Seat", "ispublic":1, "isfriend":0, "isfamily":0}, {"id":"12153231246", "owner":"9256480@N02", "secret":"b7512e1092", "server":"2880", "farm":3, "title":"Seep", "ispublic":1, "isfriend":0, "isfamily":0}, {"id":"12152961884", "owner":"56044478@N00", "secret":"275af712ab", "server":"3667", "farm":4, "title":"Mountain Hike!", "ispublic":1, "isfriend":0, "isfamily":0}, {"id":"12152558975", "owner":"27299732@N04", "secret":"4f48a267ae", "server":"3746", "farm":4, "title":"Pato real - Mallard - Anas platyrhynchos", "ispublic":1, "isfriend":0, "isfamily":0}, {"id":"12152371826", "owner":"33254522@N07", "secret":"67e1e1dc9e", "server":"7351", "farm":8, "title":"Rhino in the morning (Explored)", "ispublic":1, "isfriend":0, "isfamily":0}, {"id":"12152221325", "owner":"68451496@N06", "secret":"9358a6b4ef", "server":"7373", "farm":8, "title":"Omotesand\u014d, Tokyo (She is a man)", "ispublic":1, "isfriend":0, "isfamily":0}, {"id":"12151894244", "owner":"25859982@N07", "secret":"44447105fb", "server":"7381", "farm":8, "title":"Que j'y suis bien!", "ispublic":1, "isfriend":0, "isfamily":0}, {"id":"12151692506", "owner":"24355450@N07", "secret":"09453c2df7", "server":"3762", "farm":4, "title":"Sgorr Tuath & Stac Pollaidh.", "ispublic":1, "isfriend":0, "isfamily":0}, {"id":"12151595315", "owner":"49010317@N07", "secret":"9240e21476", "server":"5532", "farm":6, "title":"so lovely ... ( Explore )", "ispublic":1, "isfriend":0, "isfamily":0}, {"id":"12151406025", "owner":"54066314@N03", "secret":"70c51713ee", "server":"7322", "farm":8, "title":"Nh\u1eefng \u0111\u1ee9a tr\u1ebb b\u00ean d\u00f2ng su\u1ed1i", "ispublic":1, "isfriend":0, "isfamily":0}, {"id":"12150670095", "owner":"47145915@N02", "secret":"d4074de598", "server":"2858", "farm":3, "title":"First Light ~ Exlore", "ispublic":1, "isfriend":0, "isfamily":0}, {"id":"12150630906", "owner":"44143989@N06", "secret":"1ae408303d", "server":"5537", "farm":6, "title":"My friend", "ispublic":1, "isfriend":0, "isfamily":0}, {"id":"12150248766", "owner":"59394425@N05", "secret":"4efea50837", "server":"2842", "farm":3, "title":"The unblurring failings of an amateur photographer", "ispublic":1, "isfriend":0, "isfamily":0}, {"id":"12150232055", "owner":"30786676@N00", "secret":"69ddd84a00", "server":"5539", "farm":6, "title":"Stranger #112  :  Michael", "ispublic":1, "isfriend":0, "isfamily":0}, {"id":"12150119936", "owner":"61782112@N02", "secret":"cbda960be2", "server":"3729", "farm":4, "title":"La Gomera (Explore)", "ispublic":1, "isfriend":0, "isfamily":0}, {"id":"12150063475", "owner":"81030000@N07", "secret":"e46b69da90", "server":"3739", "farm":4, "title":"Warm Twilight", "ispublic":1, "isfriend":0, "isfamily":0}, {"id":"12149566284", "owner":"57802778@N03", "secret":"d90309cae5", "server":"3737", "farm":4, "title":"Low tide [Explored]", "ispublic":1, "isfriend":0, "isfamily":0}, {"id":"12149131743", "owner":"32513817@N00", "secret":"0b27dc8e03", "server":"7380", "farm":8, "title":"Watch out \u2013 Highwater on my beach", "ispublic":1, "isfriend":0, "isfamily":0}, {"id":"12148836676", "owner":"93277085@N08", "secret":"52b9725ae0", "server":"7453", "farm":8, "title":"Avenue for two", "ispublic":1, "isfriend":0, "isfamily":0}, {"id":"12148628634", "owner":"92185347@N05", "secret":"110f5334a2", "server":"3820", "farm":4, "title":"023", "ispublic":1, "isfriend":0, "isfamily":0}, {"id":"12148439135", "owner":"52207031@N02", "secret":"db1692fc17", "server":"7374", "farm":8, "title":"Too early", "ispublic":1, "isfriend":0, "isfamily":0}, {"id":"12148388106", "owner":"76627744@N08", "secret":"8424441d73", "server":"7439", "farm":8, "title":"Sonnenaufgang", "ispublic":1, "isfriend":0, "isfamily":0}, {"id":"12164262835", "owner":"33589505@N08", "secret":"e7b7d7b319", "server":"3738", "farm":4, "title":"Alpine sunset", "ispublic":1, "isfriend":0, "isfamily":0}, {"id":"12160023575", "owner":"23377590@N07", "secret":"d954f5e940", "server":"2847", "farm":3, "title":"Ocaso", "ispublic":1, "isfriend":0, "isfamily":0}, {"id":"12158567335", "owner":"24549605@N04", "secret":"0d3848b0ae", "server":"5514", "farm":6, "title":"\"I hope That is not a SKUNK!\"", "ispublic":1, "isfriend":0, "isfamily":0}, {"id":"12155913224", "owner":"53521404@N05", "secret":"85852964aa", "server":"5476", "farm":6, "title":"A Grey Day", "ispublic":1, "isfriend":0, "isfamily":0}, {"id":"12155383644", "owner":"90257078@N03", "secret":"748914067b", "server":"3791", "farm":4, "title":"Morella", "ispublic":1, "isfriend":0, "isfamily":0}, {"id":"12154206125", "owner":"77309665@N00", "secret":"68746b079e", "server":"7348", "farm":8, "title":"The Sea Wall", "ispublic":1, "isfriend":0, "isfamily":0}, {"id":"12150685043", "owner":"30629798@N07", "secret":"2ef7159eab", "server":"5490", "farm":6, "title":"Buscando el sol", "ispublic":1, "isfriend":0, "isfamily":0}, {"id":"12150606236", "owner":"86767332@N06", "secret":"4618713bf3", "server":"3709", "farm":4, "title":"Dunas de hielo #3 \/ Ice dunes #3 (Sierra Nevada, winter, 2013)", "ispublic":1, "isfriend":0, "isfamily":0}, {"id":"12164405995", "owner":"9476878@N03", "secret":"4f22b570c4", "server":"7310", "farm":8, "title":"Fire in the Sky", "ispublic":1, "isfriend":0, "isfamily":0}, {"id":"12163295646", "owner":"50871004@N00", "secret":"282f61019c", "server":"7420", "farm":8, "title":"Horsehead \/ Flame \/ Fan LHaRGB", "ispublic":1, "isfriend":0, "isfamily":0}, {"id":"12159755516", "owner":"67908321@N02", "secret":"b273091a9d", "server":"7373", "farm":8, "title":"Casuarinas", "ispublic":1, "isfriend":0, "isfamily":0}, {"id":"12157579755", "owner":"59323238@N02", "secret":"ce703f2b5b", "server":"5550", "farm":6, "title":"Orange Tulips", "ispublic":1, "isfriend":0, "isfamily":0}, {"id":"12155054153", "owner":"59099380@N08", "secret":"3f68e314d8", "server":"2863", "farm":3, "title":"St-Thomas-\u00e0-Becket-Church-at-Fairfield-1", "ispublic":1, "isfriend":0, "isfamily":0}, {"id":"12154006353", "owner":"36864332@N00", "secret":"72fd00c7e9", "server":"3812", "farm":4, "title":"Buttermere-5202_3_4-Edit.jpg", "ispublic":1, "isfriend":0, "isfamily":0}, {"id":"12153868043", "owner":"79174419@N03", "secret":"3487a2f846", "server":"5487", "farm":6, "title":"Escapade nature - Cirque de Saint M\u00eame, Is\u00e8re, France", "ispublic":1, "isfriend":0, "isfamily":0}, {"id":"12153498014", "owner":"82832569@N04", "secret":"7f6b7518f8", "server":"3739", "farm":4, "title":"january", "ispublic":1, "isfriend":0, "isfamily":0}, {"id":"12152650905", "owner":"62546325@N02", "secret":"a1924946e8", "server":"5528", "farm":6, "title":"Teutonic architecture \/Explore", "ispublic":1, "isfriend":0, "isfamily":0}, {"id":"12152006665", "owner":"56447731@N02", "secret":"d947c0ce91", "server":"3669", "farm":4, "title":"Old School: GX1 with Industars 69 and 61 L\/Z [ Explored ]", "ispublic":1, "isfriend":0, "isfamily":0}, {"id":"12150481775", "owner":"58328306@N03", "secret":"332208c671", "server":"2882", "farm":3, "title":"Long Shadows", "ispublic":1, "isfriend":0, "isfamily":0}, {"id":"12148919996", "owner":"48201832@N05", "secret":"9046afb03a", "server":"7401", "farm":8, "title":"Orangeness:)", "ispublic":1, "isfriend":0, "isfamily":0}, {"id":"12163421484", "owner":"57066570@N05", "secret":"2959ecd060", "server":"3807", "farm":4, "title":"winter sky", "ispublic":1, "isfriend":0, "isfamily":0}, {"id":"12163198624", "owner":"25519634@N02", "secret":"32ea38a970", "server":"5524", "farm":6, "title":"Venture into the woods", "ispublic":1, "isfriend":0, "isfamily":0}]}, "stat":"ok"}